Rowley_Apr16
…
tidy(m0, effects = "ran_vals")

## # A tibble: 100 x 6
##    effect   group level term        estimate std.error
##    <chr>    <chr> <chr> <chr>          <dbl>     <dbl>
##  1 ran_vals class 1     (Intercept) -0.00263     0.237
##  2 ran_vals class 2     (Intercept) -0.895       0.237
##  3 ran_vals class 3     (Intercept) -0.350       0.249
##  4 ran_vals class 4     (Intercept)  0.332       0.222
##  5 ran_vals class 5     (Intercept)  0.192       0.232
##  6 ran_vals class 6     (Intercept) -0.683       0.237
##  7 ran_vals class 7     (Intercept) -0.806       0.232
##  8 ran_vals class 8     (Intercept) -1.02        0.237
##  9 ran_vals class 9     (Intercept) -0.384       0.237
## 10 ran_vals class 10    (Intercept)  0.223       0.218
## #  with 90 more rows

# ran_vals provides the estimate from jN(0,).
tidy(m0, effects = "ran_vals")$estimate[1:5] + fixef(m0)[1]

## [1] 5.075229 4.182872 4.728244 5.409677 5.269808

tidy(m0, effects = "ran_coefs")

## # A tibble: 100 x 5
##    effect    group level term        estimate
##    <chr>     <chr> <chr> <chr>          <dbl>
##  1 ran_coefs class 1     (Intercept)     5.08
##  2 ran_coefs class 2     (Intercept)     4.18
##  3 ran_coefs class 3     (Intercept)     4.73
##  4 ran_coefs class 4     (Intercept)     5.41
##  5 ran_coefs class 5     (Intercept)     5.27
##  6 ran_coefs class 6     (Intercept)     4.39
##  7 ran_coefs class 7     (Intercept)     4.27
##  8 ran_coefs class 8     (Intercept)     4.06
##  9 ran_coefs class 9     (Intercept)     4.69
## 10 ran_coefs class 10    (Intercept)     5.30
## #  with 90 more rows
…
popular

## # A tibble: 2,000 x 7
##    pupil class extrav sex    texp popular popteach
##    <dbl> <dbl>  <dbl> <chr> <dbl>   <dbl>    <dbl>
##  1     1     1      5 girl     24     6.3        6
##  2     2     1      7 boy      24     4.9        5
##  3     3     1      4 girl     24     5.3        6
##  4     4     1      3 girl     24     4.7        5
##  5     5     1      5 girl     24     6          6
##  6     6     1      4 boy      24     4.7        5
##  7     7     1      5 boy      24     5.9        5
##  8     8     1      4 boy      24     4.2        5
##  9     9     1      5 boy      24     5.2        5
## 10    10     1      5 boy      24     3.9        3
## #  with 1,990 more rows
…
